\relax 
\providecommand\hyper@newdestlabel[2]{}
\FN@pp@footnotehinttrue 
\@writefile{toc}{\contentsline {chapter}{\numberline {4}Conclusions and Future Work}{29}{chapter.4}}
\@writefile{lof}{\addvspace {10\p@ }}
\@writefile{lot}{\addvspace {10\p@ }}
\@writefile{toc}{\contentsline {section}{\numberline {4.1}Conclusion}{29}{section.4.1}}
\@writefile{toc}{\contentsline {section}{\numberline {4.2}Future Work}{30}{section.4.2}}
\FN@pp@footnotehinttrue 
\@setckpt{conclusions/conclusions}{
\setcounter{page}{31}
\setcounter{equation}{0}
\setcounter{enumi}{5}
\setcounter{enumii}{6}
\setcounter{enumiii}{0}
\setcounter{enumiv}{0}
\setcounter{footnote}{0}
\setcounter{mpfootnote}{0}
\setcounter{part}{0}
\setcounter{chapter}{4}
\setcounter{section}{2}
\setcounter{subsection}{0}
\setcounter{subsubsection}{0}
\setcounter{paragraph}{0}
\setcounter{subparagraph}{0}
\setcounter{figure}{0}
\setcounter{table}{0}
\setcounter{parentequation}{0}
\setcounter{NAT@ctr}{0}
\setcounter{pp@next@reset}{1}
\setcounter{@fnserial}{0}
\setcounter{Item}{83}
\setcounter{Hfootnote}{0}
\setcounter{bookmark@seq@number}{36}
\setcounter{lofdepth}{1}
\setcounter{lotdepth}{1}
\setcounter{ALC@unique}{0}
\setcounter{ALC@line}{0}
\setcounter{ALC@rem}{0}
\setcounter{ALC@depth}{0}
\setcounter{float@type}{8}
\setcounter{algorithm}{0}
\setcounter{r@tfl@t}{0}
\setcounter{ContinuedFloat}{0}
\setcounter{KVtest}{0}
\setcounter{subfigure}{0}
\setcounter{subfigure@save}{0}
\setcounter{subtable}{0}
\setcounter{subtable@save}{0}
\setcounter{AM@survey}{0}
\setcounter{blindtext}{1}
\setcounter{Blindtext}{5}
\setcounter{blind@countparstart}{0}
\setcounter{blindlist}{0}
\setcounter{blindlistlevel}{0}
\setcounter{blindlist@level}{0}
\setcounter{blind@listcount}{0}
\setcounter{blind@levelcount}{0}
\setcounter{blind@randomcount}{0}
\setcounter{blind@randommax}{0}
\setcounter{blind@pangramcount}{0}
\setcounter{blind@pangrammax}{0}
\setcounter{lips@count}{0}
\setcounter{tikzumlPackageLayers}{3}
\setcounter{tikzumlFragmentLayers}{3}
\setcounter{tikzumlStateLayers}{3}
\setcounter{tikzumlComponentLayers}{3}
\setcounter{tikzumlPackageClassNum}{0}
\setcounter{tikzumlPackageSubPackageNum}{0}
\setcounter{tikzumlRelationNum}{1}
\setcounter{tikzumlNoteNum}{1}
\setcounter{pos}{0}
\setcounter{posT}{0}
\setcounter{posStereo}{0}
\setcounter{tikzumlPackageLevel}{0}
\setcounter{tikzumlSystemUseCaseNum}{0}
\setcounter{tikzumlSystemLevel}{0}
\setcounter{tikzumlUseCaseNum}{0}
\setcounter{tikzumlActorNum}{0}
\setcounter{tikzumlStateJoinNum}{0}
\setcounter{tikzumlStateDecisionNum}{0}
\setcounter{tikzumlStateInitialNum}{0}
\setcounter{tikzumlStateFinalNum}{0}
\setcounter{tikzumlStateEnterNum}{0}
\setcounter{tikzumlStateExitNum}{0}
\setcounter{tikzumlStateEndNum}{0}
\setcounter{tikzumlStateHistoryNum}{0}
\setcounter{tikzumlStateDeepHistoryNum}{0}
\setcounter{tikzumlStateLevel}{0}
\setcounter{tikzumlStateSubStateNum}{0}
\setcounter{tikzumlStateText}{0}
\setcounter{tikzumlObjectNum}{0}
\setcounter{tikzumlCallLevel}{0}
\setcounter{tikzumlCallNum}{0}
\setcounter{tikzumlFragmentLevel}{0}
\setcounter{tikzumlFragmentLevelNum}{0}
\setcounter{tikzumlFragmentNum}{0}
\setcounter{tikzumlFragmentPartNum}{0}
\setcounter{tikzumlCallStartFragmentNum}{0}
\setcounter{tikzumlCallEndFragmentNum}{0}
\setcounter{tikzumlSDNodeNum}{0}
\setcounter{tikzumlComponentLevel}{0}
\setcounter{tikzumlComponentSubComponentNum}{0}
\setcounter{tikzumlConnectorNum}{1}
\setcounter{section@level}{0}
}
