\BOOKMARK [2][]{Outline0.1}{Introduction}{}% 1
\BOOKMARK [2][]{Outline0.2}{Project Problem Statement}{}% 2
\BOOKMARK [2][]{Outline0.3}{Project Scope}{}% 3
\BOOKMARK [2][]{Outline0.4}{Rule Based - Information retrieval QA}{}% 4
\BOOKMARK [2][]{Outline0.5}{Bird’s-Eye View Workflow - Detailed}{}% 5
\BOOKMARK [2][]{Outline0.6}{Question Processing}{}% 6
\BOOKMARK [3][]{Outline0.6.1.8}{Natural Language Processing}{Outline0.6}% 7
\BOOKMARK [3][]{Outline0.6.2.10}{Natural Language Understanding}{Outline0.6}% 8
\BOOKMARK [2][]{Outline0.7}{Document Retrieval}{}% 9
\BOOKMARK [2][]{Outline0.8}{Answer Extraction}{}% 10
\BOOKMARK [3][]{Outline0.8.1.14}{Summary}{Outline0.8}% 11
\BOOKMARK [3][]{Outline0.8.2.16}{Keys + XML}{Outline0.8}% 12
\BOOKMARK [2][]{Outline0.9}{Analysis \046 Results}{}% 13
\BOOKMARK [2][]{Outline0.10}{Use case Diagram}{}% 14
\BOOKMARK [2][]{Outline0.11}{Product Features}{}% 15
\BOOKMARK [2][]{Outline0.12}{Poster}{}% 16
\BOOKMARK [2][]{Outline0.13}{References}{}% 17
