\relax 
\providecommand\hyper@newdestlabel[2]{}
\FN@pp@footnotehinttrue 
\@writefile{toc}{\contentsline {chapter}{\numberline {2}Literature Review}{5}{chapter.2}}
\@writefile{lof}{\addvspace {10\p@ }}
\@writefile{lot}{\addvspace {10\p@ }}
\newlabel{ch:lit-review}{{2}{5}{Literature Review}{chapter.2}{}}
\@writefile{toc}{\contentsline {section}{\numberline {2.1}Existing Techniques for Question Answering}{5}{section.2.1}}
\@writefile{toc}{\contentsline {subsection}{\numberline {2.1.1}Information Retrieval (IR) Based Question Answering}{5}{subsection.2.1.1}}
\FN@pp@footnotehinttrue 
\@setckpt{chapter2/chapter2}{
\setcounter{page}{6}
\setcounter{equation}{0}
\setcounter{enumi}{3}
\setcounter{enumii}{0}
\setcounter{enumiii}{0}
\setcounter{enumiv}{0}
\setcounter{footnote}{0}
\setcounter{mpfootnote}{0}
\setcounter{part}{0}
\setcounter{chapter}{2}
\setcounter{section}{1}
\setcounter{subsection}{1}
\setcounter{subsubsection}{0}
\setcounter{paragraph}{0}
\setcounter{subparagraph}{0}
\setcounter{figure}{0}
\setcounter{table}{0}
\setcounter{parentequation}{0}
\setcounter{NAT@ctr}{0}
\setcounter{pp@next@reset}{1}
\setcounter{@fnserial}{0}
\setcounter{Item}{11}
\setcounter{Hfootnote}{0}
\setcounter{bookmark@seq@number}{10}
\setcounter{lofdepth}{1}
\setcounter{lotdepth}{1}
\setcounter{ALC@unique}{0}
\setcounter{ALC@line}{0}
\setcounter{ALC@rem}{0}
\setcounter{ALC@depth}{0}
\setcounter{float@type}{8}
\setcounter{algorithm}{0}
\setcounter{r@tfl@t}{0}
\setcounter{ContinuedFloat}{0}
\setcounter{KVtest}{0}
\setcounter{subfigure}{0}
\setcounter{subfigure@save}{0}
\setcounter{subtable}{0}
\setcounter{subtable@save}{0}
\setcounter{AM@survey}{0}
\setcounter{blindtext}{1}
\setcounter{Blindtext}{5}
\setcounter{blind@countparstart}{0}
\setcounter{blindlist}{0}
\setcounter{blindlistlevel}{0}
\setcounter{blindlist@level}{0}
\setcounter{blind@listcount}{0}
\setcounter{blind@levelcount}{0}
\setcounter{blind@randomcount}{0}
\setcounter{blind@randommax}{0}
\setcounter{blind@pangramcount}{0}
\setcounter{blind@pangrammax}{0}
\setcounter{lips@count}{0}
\setcounter{section@level}{0}
}
