\begin{thebibliography}{10}

\bibitem{DBpedia15}
About dbpedia, 2017.

\bibitem{Wolfram2}
Difference between google and wolfram alpha, 2017.

\bibitem{Aggrawal16}
C.~C. Aggarwal and C.~X. Zhai.
\newblock Mining text data.
\newblock 2012.

\bibitem{Bizer11}
C.~Bizer, J.~Lehmann, G.~Kobilarov, S.~Auer, and C.~Becker.
\newblock Web semantics: science,services, and agents on the world wide web.
\newblock In {\em DBpedia—A crystallization point for the Web of Data}, pages
  154--165. Pearson {US}, 2009.

\bibitem{Bollacker10}
K.~Bollacker, C.~Evans, P.~Paritosh, T.~Sturge, and Taylor.
\newblock Freebase: a collaboratively created graph.
\newblock {\em ACM}, 2008.

\bibitem{Brill7}
E.~Brill, S.~T. Dumais, and M.~Banko.
\newblock An analysis of the askmsr question-answering system.
\newblock pages 257--264. 2002.

\bibitem{Roth13}
Experimental~Data for Question~Classification.
\newblock The solution of multipoint boundary value problems by the optimal
  {Homotopy} asymptotic method.
\newblock 2009.

\bibitem{Wael17}
Wael~H. Gomaa and Aly~A. Fahmy.
\newblock A survey of text similarity approaches.
\newblock 2013.

\bibitem{Green9}
B.~Green and C.~Chomsky.
\newblock Baseball: An automatic question answerer.
\newblock 1961.

\bibitem{Gunelius1}
S.~Gunelius.
\newblock The amazing growth of google – infographic, 203.

\bibitem{Huang5}
Z.~Huang, M.~Thint, and Z.~Qin.
\newblock Question classification using headwords and their hypernyms.
\newblock {\em IEEE}, 2008.

\bibitem{A6}
A.~Ittcheriah.
\newblock Ibm statistical question answering system.
\newblock {\em ACM}, 2000.

\bibitem{Lehmann14}
M.~Jakob J.~Lehmann, R.~Isele and A.~Jentzsch.
\newblock Dbpedia – a large-scale, multilingual knowledge base extracted from
  wikipedia.
\newblock {\em IOS Press}, 2012.

\bibitem{John3}
D.~Jufrasky and J.~Martin.
\newblock Speech and language processing.
\newblock In {\em An Introduction to Natural Language Processing,Computational
  Linguistics, and Speech Recognition}, pages 400--417. Pearson {US}, 2017.

\bibitem{Roth4}
X.~Li and D.~Roth.
\newblock Learning question classifiers.
\newblock {\em TREC}, 2002.

\bibitem{Lin8}
J.~Lin.
\newblock An exploration of the principles underlying.
\newblock {\em ACM}, 2007.

\bibitem{Zhang12}
C.~Zhang.
\newblock Distant supervision - deep dive.
\newblock 2017.

\end{thebibliography}
