\relax 
\providecommand\hyper@newdestlabel[2]{}
\providecommand\HyperFirstAtBeginDocument{\AtBeginDocument}
\HyperFirstAtBeginDocument{\ifx\hyper@anchor\@undefined
\global\let\oldcontentsline\contentsline
\gdef\contentsline#1#2#3#4{\oldcontentsline{#1}{#2}{#3}}
\global\let\oldnewlabel\newlabel
\gdef\newlabel#1#2{\newlabelxx{#1}#2}
\gdef\newlabelxx#1#2#3#4#5#6{\oldnewlabel{#1}{{#2}{#3}}}
\AtEndDocument{\ifx\hyper@anchor\@undefined
\let\contentsline\oldcontentsline
\let\newlabel\oldnewlabel
\fi}
\fi}
\global\let\hyper@last\relax 
\gdef\HyperFirstAtBeginDocument#1{#1}
\providecommand\HyField@AuxAddToFields[1]{}
\providecommand\HyField@AuxAddToCoFields[2]{}
\select@language{english}
\@writefile{toc}{\select@language{english}}
\@writefile{lof}{\select@language{english}}
\@writefile{lot}{\select@language{english}}
\providecommand {\FN@pp@footnotehinttrue }{}
\providecommand {\FN@pp@footnote@aux }[2]{}
\FN@pp@footnotehinttrue 
\FN@pp@footnotehinttrue 
\FN@pp@footnotehinttrue 
\FN@pp@footnotehinttrue 
\FN@pp@footnotehinttrue 
\FN@pp@footnotehinttrue 
\FN@pp@footnotehinttrue 
\FN@pp@footnotehinttrue 
\citation{Roth13}
\@input{chapter1/chapter1.aux}
\FN@pp@footnotehinttrue 
\FN@pp@footnotehinttrue 
\FN@pp@footnotehinttrue 
\@input{chapter2/chapter2.aux}
\FN@pp@footnotehinttrue 
\FN@pp@footnotehinttrue 
\@input{chapter3/chapter3.aux}
\FN@pp@footnotehinttrue 
\@input{conclusions/conclusions.aux}
\FN@pp@footnotehinttrue 
\FN@pp@footnotehinttrue 
\bibstyle{plain}
\bibdata{bib}
\bibcite{DBpedia15}{{1}{}{{}}{{}}}
\bibcite{Wolfram2}{{2}{}{{}}{{}}}
\bibcite{Aggrawal16}{{3}{}{{}}{{}}}
\bibcite{Bizer11}{{4}{}{{}}{{}}}
\bibcite{Bollacker10}{{5}{}{{}}{{}}}
\bibcite{Brill7}{{6}{}{{}}{{}}}
\bibcite{Roth13}{{7}{}{{}}{{}}}
\bibcite{Wael17}{{8}{}{{}}{{}}}
\bibcite{Green9}{{9}{}{{}}{{}}}
\bibcite{Gunelius1}{{10}{}{{}}{{}}}
\bibcite{Huang5}{{11}{}{{}}{{}}}
\bibcite{A6}{{12}{}{{}}{{}}}
\bibcite{Lehmann14}{{13}{}{{}}{{}}}
\bibcite{John3}{{14}{}{{}}{{}}}
\bibcite{Roth4}{{15}{}{{}}{{}}}
\bibcite{Lin8}{{16}{}{{}}{{}}}
\bibcite{Zhang12}{{17}{}{{}}{{}}}
\providecommand\NAT@force@numbers{}\NAT@force@numbers
\FN@pp@footnotehinttrue 
\@writefile{toc}{\contentsline {chapter}{References}{31}{chapter*.23}}
