\relax 
\providecommand\hyper@newdestlabel[2]{}
\FN@pp@footnotehinttrue 
\@writefile{toc}{\contentsline {chapter}{\numberline {3}Proposed System}{17}{chapter.3}}
\@writefile{lof}{\addvspace {10\p@ }}
\@writefile{lot}{\addvspace {10\p@ }}
\newlabel{ch:prop-system}{{3}{17}{Proposed System}{chapter.3}{}}
\@writefile{toc}{\contentsline {section}{\numberline {3.1}Requirements}{17}{section.3.1}}
\@writefile{toc}{\contentsline {subsection}{\numberline {3.1.1}Software Requirements}{18}{subsection.3.1.1}}
\@writefile{toc}{\contentsline {subsection}{\numberline {3.1.2}Hardware Requirements}{18}{subsection.3.1.2}}
\@writefile{toc}{\contentsline {subsection}{\numberline {3.1.3}User End Requirements}{18}{subsection.3.1.3}}
\@writefile{toc}{\contentsline {section}{\numberline {3.2}System Description}{19}{section.3.2}}
\@writefile{toc}{\contentsline {subsection}{\numberline {3.2.1}System Phases}{19}{subsection.3.2.1}}
\@writefile{lof}{\contentsline {figure}{\numberline {3.1}{\ignorespaces Proposed System\relax }}{19}{figure.caption.9}}
\newlabel{fig:4}{{3.1}{19}{Proposed System\relax }{figure.caption.9}{}}
\@writefile{toc}{\contentsline {subsection}{\numberline {3.2.2}Question Processing}{20}{subsection.3.2.2}}
\@writefile{lof}{\contentsline {figure}{\numberline {3.2}{\ignorespaces Question Processing\relax }}{20}{figure.caption.10}}
\newlabel{fig:5}{{3.2}{20}{Question Processing\relax }{figure.caption.10}{}}
\@writefile{lof}{\contentsline {figure}{\numberline {3.3}{\ignorespaces Answer Type Detection Process\relax }}{20}{figure.caption.11}}
\newlabel{fig:6}{{3.3}{20}{Answer Type Detection Process\relax }{figure.caption.11}{}}
\citation{4}
\citation{13}
\@writefile{lof}{\contentsline {figure}{\numberline {3.4}{\ignorespaces Query Formulation Process\relax }}{21}{figure.caption.12}}
\newlabel{fig:7}{{3.4}{21}{Query Formulation Process\relax }{figure.caption.12}{}}
\@writefile{lof}{\contentsline {figure}{\numberline {3.5}{\ignorespaces Example of POS Tagging\relax }}{22}{figure.caption.13}}
\newlabel{fig:7a}{{3.5}{22}{Example of POS Tagging\relax }{figure.caption.13}{}}
\@writefile{lof}{\contentsline {figure}{\numberline {3.6}{\ignorespaces Concept Retrieval\relax }}{22}{figure.caption.14}}
\newlabel{fig:7b}{{3.6}{22}{Concept Retrieval\relax }{figure.caption.14}{}}
\@writefile{lof}{\contentsline {figure}{\numberline {3.7}{\ignorespaces Constituency Parsing\relax }}{23}{figure.caption.15}}
\newlabel{fig:7c}{{3.7}{23}{Constituency Parsing\relax }{figure.caption.15}{}}
\@writefile{lof}{\contentsline {figure}{\numberline {3.8}{\ignorespaces Dependency Parsing\relax }}{23}{figure.caption.16}}
\newlabel{fig:7d}{{3.8}{23}{Dependency Parsing\relax }{figure.caption.16}{}}
\@writefile{toc}{\contentsline {subsection}{\numberline {3.2.3}Summarization and Passage Retrieval:}{24}{subsection.3.2.3}}
\@writefile{lof}{\contentsline {figure}{\numberline {3.9}{\ignorespaces Summarization and Passage Retrieval Phase\relax }}{24}{figure.caption.17}}
\newlabel{fig:8}{{3.9}{24}{Summarization and Passage Retrieval Phase\relax }{figure.caption.17}{}}
\@writefile{toc}{\contentsline {section}{\numberline {3.3}Answer Extraction}{24}{section.3.3}}
\newlabel{sec:4}{{3.3}{24}{Answer Extraction}{section.3.3}{}}
\@writefile{lof}{\contentsline {figure}{\numberline {3.10}{\ignorespaces Answer Extraction\relax }}{25}{figure.caption.18}}
\newlabel{fig:12}{{3.10}{25}{Answer Extraction\relax }{figure.caption.18}{}}
\@writefile{toc}{\contentsline {section}{\numberline {3.4}Use case Diagram \& Description}{26}{section.3.4}}
\@writefile{lof}{\contentsline {figure}{\numberline {3.11}{\ignorespaces Use case Diagram\relax }}{26}{figure.caption.19}}
\newlabel{fig:9}{{3.11}{26}{Use case Diagram\relax }{figure.caption.19}{}}
\@writefile{lot}{\contentsline {table}{\numberline {3.1}{\ignorespaces Use Case Description\relax }}{26}{table.caption.20}}
\newlabel{table:5}{{3.1}{26}{Use Case Description\relax }{table.caption.20}{}}
\FN@pp@footnotehinttrue 
\@writefile{toc}{\contentsline {section}{\numberline {3.5}Activity Diagram}{27}{section.3.5}}
\@writefile{lof}{\contentsline {figure}{\numberline {3.12}{\ignorespaces Activity diagram\relax }}{27}{figure.caption.21}}
\newlabel{fig:10}{{3.12}{27}{Activity diagram\relax }{figure.caption.21}{}}
\@writefile{toc}{\contentsline {section}{\numberline {3.6}System Sequence Diagram}{28}{section.3.6}}
\@writefile{lof}{\contentsline {figure}{\numberline {3.13}{\ignorespaces System Sequence Diagram\relax }}{28}{figure.caption.22}}
\newlabel{fig:11}{{3.13}{28}{System Sequence Diagram\relax }{figure.caption.22}{}}
\FN@pp@footnotehinttrue 
\@setckpt{chapter3/chapter3}{
\setcounter{page}{29}
\setcounter{equation}{0}
\setcounter{enumi}{2}
\setcounter{enumii}{6}
\setcounter{enumiii}{0}
\setcounter{enumiv}{0}
\setcounter{footnote}{0}
\setcounter{mpfootnote}{0}
\setcounter{part}{0}
\setcounter{chapter}{3}
\setcounter{section}{6}
\setcounter{subsection}{0}
\setcounter{subsubsection}{0}
\setcounter{paragraph}{0}
\setcounter{subparagraph}{0}
\setcounter{figure}{13}
\setcounter{table}{1}
\setcounter{parentequation}{0}
\setcounter{NAT@ctr}{0}
\setcounter{pp@next@reset}{1}
\setcounter{@fnserial}{0}
\setcounter{Item}{78}
\setcounter{Hfootnote}{0}
\setcounter{bookmark@seq@number}{33}
\setcounter{lofdepth}{1}
\setcounter{lotdepth}{1}
\setcounter{ALC@unique}{0}
\setcounter{ALC@line}{0}
\setcounter{ALC@rem}{0}
\setcounter{ALC@depth}{0}
\setcounter{float@type}{8}
\setcounter{algorithm}{0}
\setcounter{r@tfl@t}{0}
\setcounter{ContinuedFloat}{0}
\setcounter{KVtest}{0}
\setcounter{subfigure}{0}
\setcounter{subfigure@save}{0}
\setcounter{subtable}{0}
\setcounter{subtable@save}{0}
\setcounter{AM@survey}{0}
\setcounter{blindtext}{1}
\setcounter{Blindtext}{5}
\setcounter{blind@countparstart}{0}
\setcounter{blindlist}{0}
\setcounter{blindlistlevel}{0}
\setcounter{blindlist@level}{0}
\setcounter{blind@listcount}{0}
\setcounter{blind@levelcount}{0}
\setcounter{blind@randomcount}{0}
\setcounter{blind@randommax}{0}
\setcounter{blind@pangramcount}{0}
\setcounter{blind@pangrammax}{0}
\setcounter{lips@count}{0}
\setcounter{tikzumlPackageLayers}{3}
\setcounter{tikzumlFragmentLayers}{3}
\setcounter{tikzumlStateLayers}{3}
\setcounter{tikzumlComponentLayers}{3}
\setcounter{tikzumlPackageClassNum}{0}
\setcounter{tikzumlPackageSubPackageNum}{0}
\setcounter{tikzumlRelationNum}{1}
\setcounter{tikzumlNoteNum}{1}
\setcounter{pos}{0}
\setcounter{posT}{0}
\setcounter{posStereo}{0}
\setcounter{tikzumlPackageLevel}{0}
\setcounter{tikzumlSystemUseCaseNum}{0}
\setcounter{tikzumlSystemLevel}{0}
\setcounter{tikzumlUseCaseNum}{0}
\setcounter{tikzumlActorNum}{0}
\setcounter{tikzumlStateJoinNum}{0}
\setcounter{tikzumlStateDecisionNum}{0}
\setcounter{tikzumlStateInitialNum}{0}
\setcounter{tikzumlStateFinalNum}{0}
\setcounter{tikzumlStateEnterNum}{0}
\setcounter{tikzumlStateExitNum}{0}
\setcounter{tikzumlStateEndNum}{0}
\setcounter{tikzumlStateHistoryNum}{0}
\setcounter{tikzumlStateDeepHistoryNum}{0}
\setcounter{tikzumlStateLevel}{0}
\setcounter{tikzumlStateSubStateNum}{0}
\setcounter{tikzumlStateText}{0}
\setcounter{tikzumlObjectNum}{0}
\setcounter{tikzumlCallLevel}{0}
\setcounter{tikzumlCallNum}{0}
\setcounter{tikzumlFragmentLevel}{0}
\setcounter{tikzumlFragmentLevelNum}{0}
\setcounter{tikzumlFragmentNum}{0}
\setcounter{tikzumlFragmentPartNum}{0}
\setcounter{tikzumlCallStartFragmentNum}{0}
\setcounter{tikzumlCallEndFragmentNum}{0}
\setcounter{tikzumlSDNodeNum}{0}
\setcounter{tikzumlComponentLevel}{0}
\setcounter{tikzumlComponentSubComponentNum}{0}
\setcounter{tikzumlConnectorNum}{1}
\setcounter{section@level}{0}
}
