\relax 
\providecommand\hyper@newdestlabel[2]{}
\citation{John3}
\citation{Roth4}
\citation{Huang5}
\citation{A6}
\FN@pp@footnotehinttrue 
\@writefile{toc}{\contentsline {chapter}{\numberline {2}Review of Literature}{5}{chapter.2}}
\@writefile{lof}{\addvspace {10\p@ }}
\@writefile{lot}{\addvspace {10\p@ }}
\newlabel{ch:lit-review}{{2}{5}{Review of Literature}{chapter.2}{}}
\@writefile{toc}{\contentsline {section}{\numberline {2.1}Existing Techniques for Question Answering Systems}{5}{section.2.1}}
\@writefile{toc}{\contentsline {subsection}{\numberline {2.1.1}Information Retrieval (IR) Based Question Answering System}{5}{subsection.2.1.1}}
\newlabel{sec:1}{{2.1.1}{5}{Information Retrieval (IR) Based Question Answering System}{subsection.2.1.1}{}}
\citation{Brill7}
\citation{Lin8}
\citation{Green9}
\citation{Bollacker10}
\citation{Bizer11}
\@writefile{lof}{\contentsline {figure}{\numberline {2.1}{\ignorespaces Information Retrieval\relax }}{6}{figure.caption.3}}
\providecommand*\caption@xref[2]{\@setref\relax\@undefined{#1}}
\newlabel{fig:1}{{2.1}{6}{Information Retrieval\relax }{figure.caption.3}{}}
\@writefile{toc}{\contentsline {subsection}{\numberline {2.1.2}Knowledge Based Question Answering}{6}{subsection.2.1.2}}
\newlabel{sec:2}{{2.1.2}{6}{Knowledge Based Question Answering}{subsection.2.1.2}{}}
\citation{Zhang12}
\@writefile{lot}{\contentsline {table}{\numberline {2.1}{\ignorespaces Sample logical forms produced by a semantic parser for question answering. These range from simple relations like birth-year, or relations normalized to databases like Freebase to full predicate calculus.\relax }}{7}{table.caption.4}}
\newlabel{table:1}{{2.1}{7}{Sample logical forms produced by a semantic parser for question answering. These range from simple relations like birth-year, or relations normalized to databases like Freebase to full predicate calculus.\relax }{table.caption.4}{}}
\@writefile{toc}{\contentsline {subsection}{\numberline {2.1.3}A Hybrid of Information Retrieval System and Knowledge based systems}{8}{subsection.2.1.3}}
\newlabel{sec:3}{{2.1.3}{8}{A Hybrid of Information Retrieval System and Knowledge based systems}{subsection.2.1.3}{}}
\@writefile{lof}{\contentsline {figure}{\numberline {2.2}{\ignorespaces The 4 broad stages of Watson QA System\relax }}{8}{figure.caption.5}}
\newlabel{fig:2}{{2.2}{8}{The 4 broad stages of Watson QA System\relax }{figure.caption.5}{}}
\citation{Roth4}
\citation{Roth13}
\citation{Roth13}
\@writefile{toc}{\contentsline {section}{\numberline {2.2}Answer Type Taxonomy}{10}{section.2.2}}
\@writefile{lof}{\contentsline {figure}{\numberline {2.3}{\ignorespaces A subset of Li \& Roth Taxonomy\relax }}{10}{figure.caption.6}}
\newlabel{fig:3}{{2.3}{10}{A subset of Li \& Roth Taxonomy\relax }{figure.caption.6}{}}
\@writefile{lot}{\contentsline {table}{\numberline {2.2}{\ignorespaces Example sentences from Li \& Roth taxonomy tags. They are extracted from their corpus of 5500 labeled questions. \cite  {Roth13}\relax }}{11}{table.caption.7}}
\newlabel{table:2}{{2.2}{11}{Example sentences from Li \& Roth taxonomy tags. They are extracted from their corpus of 5500 labeled questions. \cite {Roth13}\relax }{table.caption.7}{}}
\@writefile{toc}{\contentsline {section}{\numberline {2.3}Simple Protocol and RDF Query Language(SPARQL)}{11}{section.2.3}}
\citation{Lehmann14}
\citation{DBpedia15}
\@writefile{lot}{\contentsline {table}{\numberline {2.3}{\ignorespaces Coordinating conjunctions examples\relax }}{12}{table.caption.8}}
\newlabel{table:3}{{2.3}{12}{Coordinating conjunctions examples\relax }{table.caption.8}{}}
\@writefile{toc}{\contentsline {section}{\numberline {2.4}DBPedia}{12}{section.2.4}}
\@writefile{toc}{\contentsline {subsection}{\numberline {2.4.1}Advantages of using DBPedia}{12}{subsection.2.4.1}}
\citation{Aggrawal16}
\@writefile{toc}{\contentsline {section}{\numberline {2.5}Summarization}{13}{section.2.5}}
\@writefile{toc}{\contentsline {subsection}{\numberline {2.5.1}Types of Text Summarization Approaches}{13}{subsection.2.5.1}}
\citation{Wael17}
\citation{Wael17}
\@writefile{toc}{\contentsline {section}{\numberline {2.6}Cosine and Jaccard Similarity}{14}{section.2.6}}
\@writefile{toc}{\contentsline {section}{\numberline {2.7}Answer Extraction Approaches}{14}{section.2.7}}
\FN@pp@footnotehinttrue 
\@setckpt{chapter2/chapter2}{
\setcounter{page}{16}
\setcounter{equation}{2}
\setcounter{enumi}{6}
\setcounter{enumii}{4}
\setcounter{enumiii}{0}
\setcounter{enumiv}{0}
\setcounter{footnote}{0}
\setcounter{mpfootnote}{0}
\setcounter{part}{0}
\setcounter{chapter}{2}
\setcounter{section}{7}
\setcounter{subsection}{0}
\setcounter{subsubsection}{0}
\setcounter{paragraph}{0}
\setcounter{subparagraph}{0}
\setcounter{figure}{3}
\setcounter{table}{3}
\setcounter{parentequation}{0}
\setcounter{NAT@ctr}{0}
\setcounter{pp@next@reset}{1}
\setcounter{@fnserial}{0}
\setcounter{Item}{49}
\setcounter{Hfootnote}{0}
\setcounter{bookmark@seq@number}{20}
\setcounter{lofdepth}{1}
\setcounter{lotdepth}{1}
\setcounter{ALC@unique}{0}
\setcounter{ALC@line}{0}
\setcounter{ALC@rem}{0}
\setcounter{ALC@depth}{0}
\setcounter{float@type}{8}
\setcounter{algorithm}{0}
\setcounter{r@tfl@t}{0}
\setcounter{ContinuedFloat}{0}
\setcounter{KVtest}{0}
\setcounter{subfigure}{0}
\setcounter{subfigure@save}{0}
\setcounter{subtable}{0}
\setcounter{subtable@save}{0}
\setcounter{AM@survey}{0}
\setcounter{blindtext}{1}
\setcounter{Blindtext}{5}
\setcounter{blind@countparstart}{0}
\setcounter{blindlist}{0}
\setcounter{blindlistlevel}{0}
\setcounter{blindlist@level}{0}
\setcounter{blind@listcount}{0}
\setcounter{blind@levelcount}{0}
\setcounter{blind@randomcount}{0}
\setcounter{blind@randommax}{0}
\setcounter{blind@pangramcount}{0}
\setcounter{blind@pangrammax}{0}
\setcounter{lips@count}{0}
\setcounter{tikzumlPackageLayers}{3}
\setcounter{tikzumlFragmentLayers}{3}
\setcounter{tikzumlStateLayers}{3}
\setcounter{tikzumlComponentLayers}{3}
\setcounter{tikzumlPackageClassNum}{0}
\setcounter{tikzumlPackageSubPackageNum}{0}
\setcounter{tikzumlRelationNum}{1}
\setcounter{tikzumlNoteNum}{1}
\setcounter{pos}{0}
\setcounter{posT}{0}
\setcounter{posStereo}{0}
\setcounter{tikzumlPackageLevel}{0}
\setcounter{tikzumlSystemUseCaseNum}{0}
\setcounter{tikzumlSystemLevel}{0}
\setcounter{tikzumlUseCaseNum}{0}
\setcounter{tikzumlActorNum}{0}
\setcounter{tikzumlStateJoinNum}{0}
\setcounter{tikzumlStateDecisionNum}{0}
\setcounter{tikzumlStateInitialNum}{0}
\setcounter{tikzumlStateFinalNum}{0}
\setcounter{tikzumlStateEnterNum}{0}
\setcounter{tikzumlStateExitNum}{0}
\setcounter{tikzumlStateEndNum}{0}
\setcounter{tikzumlStateHistoryNum}{0}
\setcounter{tikzumlStateDeepHistoryNum}{0}
\setcounter{tikzumlStateLevel}{0}
\setcounter{tikzumlStateSubStateNum}{0}
\setcounter{tikzumlStateText}{0}
\setcounter{tikzumlObjectNum}{0}
\setcounter{tikzumlCallLevel}{0}
\setcounter{tikzumlCallNum}{0}
\setcounter{tikzumlFragmentLevel}{0}
\setcounter{tikzumlFragmentLevelNum}{0}
\setcounter{tikzumlFragmentNum}{0}
\setcounter{tikzumlFragmentPartNum}{0}
\setcounter{tikzumlCallStartFragmentNum}{0}
\setcounter{tikzumlCallEndFragmentNum}{0}
\setcounter{tikzumlSDNodeNum}{0}
\setcounter{tikzumlComponentLevel}{0}
\setcounter{tikzumlComponentSubComponentNum}{0}
\setcounter{tikzumlConnectorNum}{1}
\setcounter{section@level}{0}
}
